<?xml version="1.0" encoding="utf-8"?>
<!-- Generator: Adobe Illustrator 19.2.1, SVG Export Plug-In . SVG Version: 6.00 Build 0)  -->
<svg version="1.1" id="Layer_1" xmlns="http://www.w3.org/2000/svg" xmlns:xlink="http://www.w3.org/1999/xlink" x="0px" y="0px"
	 viewBox="0 0 512 512" style="enable-background:new 0 0 512 512;" xml:space="preserve">
<g>
	<g>
		<path d="M255.3,494.9c-36.7,0-73.5,0.2-110.2-0.1c-9.5-0.1-19.3-0.4-28.5-2.5c-26.9-6.3-45.8-25.9-48.1-56.5
			c-2.9-36.4,2.3-72.2,15.6-106.4c8-20.8,20.4-38.7,41.7-48.2c6.2-2.8,12.9-5.1,19.6-6.5c10.2-2.2,19.7-0.7,28.7,5.8
			c15.9,11.6,32.8,21.3,52.5,25.9c32.6,7.5,63.3,3.2,92.2-13.4c6.9-4,13.8-8.2,20-13.1c8.4-6.5,17.7-7.3,27.2-5.4
			c19.3,3.9,35.7,12.9,47.7,29.4c12.5,17.2,19.6,36.5,23.5,56.9c5.1,26.6,9.7,53.4,5.1,80.7c-4.9,29.3-27.6,50.8-57.5,52.7
			c-17.5,1.1-35.1,0.7-52.7,0.7C306.4,495,280.9,494.9,255.3,494.9z"/>
		<path d="M153.9,187.7c-2.1-53.4,45-102.5,101.8-102.6c53.2,0,102.4,43.3,102.5,102.3c0.1,59-49.1,102.4-102.2,102.6
			C199,290.1,152,240.9,153.9,187.7z"/>
		<path d="M355.5,253.7c17-24.8,21.7-52.1,19.1-82.3c8.2,1.4,14.7,2.7,21.3,3.5c25.2,3.1,48.3-3.3,70.5-15.1
			c17.9-9.5,27.9-5.6,36,13.4c6.4,14.9,8,30.8,9.3,46.6c0.6,7.4,0.4,14.9,0.4,22.4c0.1,28.3-13.1,44.2-40.9,47.1
			c-13.7,1.4-27.7,0.7-41.5,0.3c-3.3-0.1-7.3-2.1-9.6-4.5c-16.6-17.3-36.7-26.6-60.5-28.6C358.7,256.4,357.9,255.4,355.5,253.7z"/>
		<path d="M136.7,171.3c-3.2,30.8,3.6,57.5,19.7,83.2c-3.5,1.2-6.2,2.6-9.1,2.9c-19.9,1.7-37,9.6-50.9,23.7
			c-6.5,6.6-13.3,9.6-22.5,8.9c-9-0.6-18.1-0.2-27.1-0.2c-10.9-0.1-20.9-3.5-30.1-9.2c-9-5.6-15.5-13.5-16-24.4
			c-1.3-25.5-1.5-51.1,6.3-75.9c1.6-5,3.6-10,6.3-14.5c7.2-11.8,15.5-14.1,28.1-7.7c23.1,11.8,46.8,20.3,73.3,16.8
			C121.5,174.1,128.2,172.7,136.7,171.3z"/>
		<path d="M102.5,152.6c-29.1,2.3-68.7-20.9-68.8-68.2C33.6,44.6,66.2,17.2,102,17c40.4-0.1,68.2,35.8,68.2,67.7
			C170.1,121.4,138,154.1,102.5,152.6z"/>
		<path d="M409.9,17.3c38-1.3,67.6,31.8,67.9,67.2c0.3,39.3-34.6,68.8-68.7,68.5c-34-0.4-67.4-31.1-67.2-68.6
			C342,51.7,369.7,16.1,409.9,17.3z"/>
	</g>
</g>
</svg>
