<?xml version="1.0" encoding="utf-8"?>
<!-- Generator: Adobe Illustrator 19.2.1, SVG Export Plug-In . SVG Version: 6.00 Build 0)  -->
<svg version="1.1" xmlns="http://www.w3.org/2000/svg" xmlns:xlink="http://www.w3.org/1999/xlink" x="0px" y="0px"
	 viewBox="0 0 512 512" style="enable-background:new 0 0 512 512;" xml:space="preserve">
<style type="text/css">
	.st0{display:none;}
	.st1{display:inline;}
</style>
<g id="Layer_1" class="st0">
	<g class="st1">
		
			<image style="overflow:visible;" width="152" height="189" id="PTTBpN_1_" xlink:href="CE7D69BA96D0F3CC.png"  transform="matrix(1.9604 0 0 1.9604 76.0103 61.2431)">
		</image>
	</g>
</g>
<g id="Layer_2">
	<path d="M362.5,0H149.5c-26.9,0-48.9,22-48.9,48.9v414.2c0,26.9,22,48.9,48.9,48.9h212.9c26.9,0,48.9-22,48.9-48.9V48.9
		C411.4,22,389.3,0,362.5,0z M223.2,53.5H290c2.1,0,3.9,1.7,3.9,3.9c0,2.1-1.7,3.9-3.9,3.9h-66.8c-2.1,0-3.9-1.7-3.9-3.9
		C219.3,55.2,221,53.5,223.2,53.5z M256,494.1c-17.1,0-30.9-13.9-30.9-30.9c0-17.1,13.9-30.9,30.9-30.9c17.1,0,30.9,13.9,30.9,30.9
		C286.9,480.3,273.1,494.1,256,494.1z M369.5,396c0,8.1-6.6,14.7-14.7,14.7H157.2c-8.1,0-14.7-6.6-14.7-14.7V118.7
		c0-8.1,6.6-14.7,14.7-14.7h197.6c8.1,0,14.7,6.6,14.7,14.7V396z"/>
</g>
</svg>
